E:\Applications\e4-AsaWorkspace\commandeRest\CommandModelRest\CommandModelRest\src\main\java\com\asa\hicp\model\Categorie.java
E:\Applications\e4-AsaWorkspace\commandeRest\CommandModelRest\CommandModelRest\src\main\java\com\asa\hicp\model\Client.java
E:\Applications\e4-AsaWorkspace\commandeRest\CommandModelRest\CommandModelRest\src\main\java\com\asa\hicp\model\Book.java
E:\Applications\e4-AsaWorkspace\commandeRest\CommandModelRest\CommandModelRest\src\main\java\com\asa\hicp\model\Fournisseur.java
E:\Applications\e4-AsaWorkspace\commandeRest\CommandModelRest\CommandModelRest\src\main\java\com\asa\hicp\model\Commande.java
E:\Applications\e4-AsaWorkspace\commandeRest\CommandModelRest\CommandModelRest\src\main\java\com\asa\hicp\model\Article.java
